<?xml version="1.0" encoding="utf-8"?>
<!-- Generator: Adobe Illustrator 21.1.0, SVG Export Plug-In . SVG Version: 6.00 Build 0)  -->
<svg version="1.1" id="Ebene_1" xmlns="http://www.w3.org/2000/svg" xmlns:xlink="http://www.w3.org/1999/xlink" x="0px" y="0px"
	 viewBox="0 0 111.4 111.4" style="enable-background:new 0 0 111.4 111.4;" xml:space="preserve">
<style type="text/css">
	.st0{fill:#FFFFFF;}
</style>
<title>Element 2</title>
<g>
	<g>
		<path class="st0" d="M54.9,10.2c9.8,0,17.7,8,17.7,17.7s-8,17.7-17.7,17.7s-17.7-8-17.7-17.7S45.1,10.2,54.9,10.2 M80.7,61.5
			c2.3,0.7,4.6,2.6,6.6,7c2.5,5.6,3.8,13.7,3.8,23.5c0,5.6-3.2,9.1-5.4,9.1H24.1c-2.2,0-5.4-3.6-5.4-9.1c0-9.8,1.3-17.9,3.8-23.5
			c2-4.5,4.3-6.3,6.6-7c7.4,5.7,16.4,8.8,25.8,8.8C64.3,70.3,73.3,67.2,80.7,61.5 M54.9,0.2c-15.3,0-27.7,12.4-27.7,27.7
			c0,15.3,12.4,27.7,27.7,27.7c15.3,0,27.7-12.4,27.7-27.7C82.6,12.6,70.2,0.2,54.9,0.2L54.9,0.2z M77.5,51.1
			c-5.9,5.7-13.8,9.2-22.6,9.2s-16.8-3.5-22.6-9.2c-18.9,0-23.6,22-23.6,41c0,10.5,6.9,19.1,15.4,19.1h61.7
			c8.5,0,15.4-8.6,15.4-19.1C101.1,73,96.4,51.1,77.5,51.1L77.5,51.1z"/>
	</g>
</g>
</svg>
